Introduction to data
…
N666DN

N755US

N779JB

N947UW

N959UW

# type your code for Question 8 here, and Knit
nycflights <- nycflights %>% mutate(avg_speed = distance * 60 /air_time)
nycflights %>% group_by(tailnum) %>% arrange(desc(avg_speed)) %>% select(avg_speed, tailnum)

## # A tibble: 32,735 x 2
## # Groups:   tailnum [3,490]
##    avg_speed tailnum
##        <dbl> <chr>  
##  1      703. N666DN 
##  2      557. N779JB 
##  3      554. N571JB 
##  4      548. N568JB 
##  5      548. N5EHAA 
##  6      548. N656JB 
##  7      545. N789JB 
##  8      539. N516JB 
##  9      536. N648JB 
## 10      536. N510JB 
## #  with 32,725 more rows
…
